module project_restapi

// +heroku goVersion go1.17
go 1.17

require (
	github.com/dgraph-io/ristretto v0.1.0
	github.com/dgrijalva/jwt-go v3.2.0+incompatible
	github.com/go-playground/validator/v10 v10.10.0
	github.com/go-redis/redis v6.15.9+incompatible
	github.com/gofiber/fiber/v2 v2.26.0
	github.com/jackc/pgx/v4 v4.14.1
	golang.org/x/crypto v0.0.0-20220131195533-30dcbda58838
	gopkg.in/mail.v2 v2.3.1
)

require (
	cloud.google.com/go v0.100.2 // indirect
	cloud.google.com/go/compute v0.1.0 // indirect
	cloud.google.com/go/firestore v1.6.1 // indirect
	cloud.google.com/go/iam v0.1.1 // indirect
	cloud.google.com/go/storage v1.20.0 // indirect
	firebase.google.com/go v3.13.0+incompatible // indirect
	github.com/cespare/xxhash/v2 v2.1.2 // indirect
	github.com/dustin/go-humanize v1.0.0 // indirect
	github.com/golang/glog v1.0.0 // indirect
	github.com/golang/groupcache v0.0.0-20200121045136-8c9f03a8e57e // indirect
	github.com/golang/protobuf v1.5.2 // indirect
	github.com/google/go-cmp v0.5.7 // indirect
	github.com/googleapis/gax-go/v2 v2.1.1 // indirect
	github.com/pkg/errors v0.9.1 // indirect
	go.opencensus.io v0.23.0 // indirect
	golang.org/x/net v0.0.0-20220111093109-d55c255bac03 // indirect
	golang.org/x/oauth2 v0.0.0-20211104180415-d3ed0bb246c8 // indirect
	golang.org/x/xerrors v0.0.0-20200804184101-5ec99f83aff1 // indirect
	google.golang.org/api v0.67.0 // indirect
	google.golang.org/appengine v1.6.7 // indirect
	google.golang.org/genproto v0.0.0-20220201184016-50beb8ab5c44 // indirect
	google.golang.org/grpc v1.40.1 // indirect
	google.golang.org/protobuf v1.27.1 // indirect
	gopkg.in/alexcesaro/quotedprintable.v3 v3.0.0-20150716171945-2caba252f4dc // indirect
)

require (
	github.com/andybalholm/brotli v1.0.4 // indirect
	github.com/go-playground/locales v0.14.0 // indirect
	github.com/go-playground/universal-translator v0.18.0 // indirect
	github.com/jackc/chunkreader/v2 v2.0.1 // indirect
	github.com/jackc/pgconn v1.10.1 // indirect
	github.com/jackc/pgio v1.0.0 // indirect
	github.com/jackc/pgpassfile v1.0.0 // indirect
	github.com/jackc/pgproto3/v2 v2.2.0 // indirect
	github.com/jackc/pgservicefile v0.0.0-20200714003250-2b9c44734f2b // indirect
	github.com/jackc/pgtype v1.9.1 // indirect
	github.com/jackc/puddle v1.2.1 // indirect
	github.com/jasonlvhit/gocron v0.0.1
	github.com/joho/godotenv v1.4.0
	github.com/klauspost/compress v1.14.2 // indirect
	github.com/leodido/go-urn v1.2.1 // indirect
	github.com/valyala/bytebufferpool v1.0.0 // indirect
	github.com/valyala/fasthttp v1.33.0 // indirect
	github.com/valyala/tcplisten v1.0.0 // indirect
	golang.org/x/sys v0.0.0-20220128215802-99c3d69c2c27 // indirect
	golang.org/x/text v0.3.7 // indirect
)
